#include <stdio.h>
#include <stdlib.h>
#include <time.h>
#include<windows.h>  
#include <conio.h>

int HenGio(int sophuthoc , int sophutnghi)
{
	int c = 0 ;
	int d = 0;
	int a = sophuthoc * 60;
	int b = sophutnghi * 60;
	while(c <= a)
	{
	Sleep (1000);
	c++;
	}
	printf("Da het gio hoc\a\a\a\a\a\n");

	while(d <= b)
	{
	Sleep (1000);
	d++;
	}
	printf("Da het gio nghi\a\a\a\a\a\n");
	return 0;
}

int main()
{
	int GioHoc;
	int GioNghi;
	int Again = 0;
	
while(Again == 0)
{
	printf("Moi nhap so phut ban muon hoc\a\n");
	scanf("%d",&GioHoc);
	printf("Moi nhap so phut ban muon nghi\a\n");
	scanf("%d",&GioNghi);
	printf("Bat dau hoc\n\a");
	HenGio(GioHoc,GioNghi);
	printf("Ban co muon hoc lai?\a\n");
	printf("0/Co 1/Khong\n");
	scanf("%d",&Again);
}
printf("Ban da thoat chuong trinh\a\n");
printf("Chuc May Man\a\n");
	return 0;
}

